Group,Language,Parent,Period,Definite,Indefinite,Weight,References
A,English,,700:2000,"D1,D2","I0,I1,I2",98%EnglandWales,"Traugott1992,Fischer1992"
A,German,,200:2000,"D0,D1,D2","I0,I1",100%Germany+100%Austria,"Harbert2007,Keller1978"
A,CommonScandinavian,,1100:1300,D3,I0,100%Denmark+100%Sweden+100%Norway,"Haugen1982"
A,Icelandic,CommonScandinavian,1300:2000,D3,I0,100%Iceland,"Haugen1982"
A,Swedish,CommonScandinavian,1300:2000,D3,"I0,I1",100%Sweden,"Haugen1982,Holmes1994"
A,Irish,,800:1600,D2,I0,100%Ireland,"Thurneysen1946,Dillon1961"
A,Welsh,,1100:2000,D2,I0,2%EnglandWales,"Evans1976,King2003"
A,Greek,,"-850:2000","D1,D2","I0,I1",100%Greece,"Goodwin1892,Smyth1920,Horrocks2010,Holton1997"
A,Latin,,"-100:500","D0,D1",I0,100%France+100%Iberia+100%Italy+100%Romania,"Clackson2007,Price1971,Maiden1995"
A,French,Latin,500:2000,"D1,D2","I0,I1",100%France,"Clackson2007,Price1971,Bourciez1956"
A,Romanian,Latin,500:2000,"D1,D2,D3","I0,I1",100%Romania,"Bourciez1956"
A,Bulgarian,,800:2000,"D0,D1,D2,D3",I0,100%Bulgaria,"Huntley1993,Scatton1993"
A,Russian,,800:2000,D0,I0,100%RussiaInEurope,Timberlake2004
B,Egyptian,,"-5000:700","D2,D3","I0,I1",100%AncientEgypt,"Loprieno1995,Allen2010,Junge2005"
B,Arabic,,700:2000,D3,"I3,I0",100%Arabia+100%Iraq+100%PalestineJordan+100%SyriaLebanon+100%Maghreb+100%Libya+100%Egypt,"Holes1995"
B,Hebrew,,"-1200:200,1900:2000",D3,I0,100%PalestineJordan,"Lambdin1971,Glinert1989,Coffin2005"
C,Persian,,"-500:2000",D0,"I0,I1,I2,I3",100%Iran,"Skjaervo2005,Skjaervo2009,Lazard1992"
C,IndoAryan,,700:1000,D0,I0,85%PakistanIndiaBangladesh,Masica1991
C,Bengali,IndoAryan,1000:2000,"D0,D1,D2,D3","I0,I1,I2,I3",20%PakistanIndiaBangladesh,Masica1991
C,Assamese,IndoAryan,1000:2000,"D0,D1,D2,D3","I0,I1,I2,I3",3%PakistanIndiaBangladesh,Masica1991
C,Hindi,IndoAryan,1000:2000,D0,I0,25%PakistanIndiaBangladesh,Masica1991
C,Gujarati,IndoAryan,1000:2000,D0,I0,4%PakistanIndiaBangladesh,Masica1991
D,Korean,,900:2000,D0,I0,100%Korea,"Sohn1999"
D,Japanese,,700:2000,D0,I0,100%Japan,Frellesvig2010
D,Chinese,,"-1000:2000",D0,I0,100%China,Norman1988
E,ClassicalNahuatl,,1500:1600,D2,I1,20%Mexico,"Launey1981,Sullivan1988"
E,TetelcingoNahuatl,ClassicalNahuatl,1600:2000,"D2,D3,D0",I1,0.005%Mexico,"Tuggy1979"
E,NorthPuebloNahuatl,ClassicalNahuatl,1600:2000,D2,"I1,I2",0.1%Mexico,"Brockway1979"
E,MichoacanNahuatl,ClassicalNahuatl,1600:2000,"D2,D3,D0,D1",I1,0.003%Mexico,"Beller1979"
E,HuastecaNahuatl,ClassicalNahuatl,1600:2000,"D2,D3,D0,D1",I1,1.18%Mexico,"Sischo1979"
E,YucatecMaya,,1450:2000,D1,"I0,I1",0.83%Mexico,"McQuown1967,Bolles1996"
E,QuicheMaya,,1400:2000,D1,I1,15%Guatemala,"Edmonson1967,LopezIxcoy1997"
E,CakchiquelMaya,,1500:2000,"D1,D2",I1,8%Guatemala,"Maxwell2006,Brown2006"
C,Georgian,,300:2000,"D1,D2,D3,D0",I0,12%Caucasia,"Faehnrich1991,Tuite2004,Hewitt1995"
C,Armenian,,400:2000,"D2,D3","I0,I1,I2",18%Caucasia,"Clackson2004,DumTragut2009"
B,Aramaic,,"-950:700","D3,D0",I0,75%SyriaLebanon,Creason2004
B,Geez,,400:1000,D0,I0,24%Ethiopia,"Lambdin1978,Gragg1997"
B,Tigrinya,Geez,1000:2000,"D0,D1",I0,21%Ethiopia,"Faber1997,Kogan1997"
B,Tigre,Geez,1000:2000,"D0,D1,D2","I0,I1",3%Ethiopia,"Raz1983"
B,Akkadian,,"-2000:-600",D0,I0,100%Iraq,"Huehnergard2004,Moscati1980"
B,Sumerian,,"-3200:-2000",D0,I0,100%Iraq,"Michalowski2004,Jagersma2010"
C,Tamil,,"-250:2000",D0,"I0,I1",6%PakistanIndiaBangladesh+23%SriLanka,"Steever2004,Rajam1992,Asher1982_1985,Caldwell1875_1961"
D,Tibetan,,800:2000,D0,I0,25%CTurkestanTibet,"Beyer1992,DeLancey2003,Denwood1999"
D,Mongolian,,1250:2000,D0,I0,135%Mongolia,"Poppe1974,Binnick1979"
C,Turkish,,1200:2000,D0,I1,75%TurkeyInAsia,"Kerslake1998,Lewis1967"
D,Khmer,,800:2000,D0,I0,100%KhmerRepublic,"Sidwell2009,Jenner2010,Maspero1915"
F,ColonialQuechua,,1600:1700,D0,I0,50%Bolivia+100%Ecuador+50%Peru,Adelaar2004
F,AyacuchoQuechua,ColonialQuechua,1700:2000,D0,I0,6.5%Peru,"Adelaar2004,Parker1968"
F,ImbaburaQuechua,ColonialQuechua,1700:2000,D0,I0,5%Ecuador,"Adelaar2004,Cole1985"
F,HuallagaQuechua,ColonialQuechua,1700:2000,D0,I0,0.1%Peru,"Adelaar2004,Weber1989"
F,Aymara,,1600:2000,D0,I0,25%Bolivia+10%Peru,"Adelaar2004,Bertonio1603,Hardman2001"
F,Mapuche,,1600:2000,D0,I1,100%Chile,"Adelaar2004,Valdivia1060,Smeets2008"
